EESchema Schematic File Version 4
EELAYER 30 0
EELAYER END
$Descr A3 16535 11693
encoding utf-8
Sheet 1 1
Title "outsie"
Date ""
Rev "1.0"
Comp "phonèmes"
Comment1 ""
Comment2 ""
Comment3 ""
Comment4 ""
$EndDescr
$Comp
L Connector_Generic:Conn_01x01 J2
U 1 1 5CC062D0
P 1350 2800
F 0 "J2" H 1270 2575 50  0000 C CNN
F 1 "RIGHT_IN" H 1270 2666 50  0000 C CNN
F 2 "Connector_PinHeader_2.54mm:PinHeader_1x01_P2.54mm_Vertical" H 1350 2800 50  0001 C CNN
F 3 "~" H 1350 2800 50  0001 C CNN
	1    1350 2800
	-1   0    0    1   
$EndComp
$Comp
L Connector_Generic:Conn_01x01 J3
U 1 1 5CC0636B
P 1350 4550
F 0 "J3" H 1270 4325 50  0000 C CNN
F 1 "LEFT_IN" H 1270 4416 50  0000 C CNN
F 2 "Connector_PinHeader_2.54mm:PinHeader_1x01_P2.54mm_Vertical" H 1350 4550 50  0001 C CNN
F 3 "~" H 1350 4550 50  0001 C CNN
	1    1350 4550
	-1   0    0    1   
$EndComp
$Comp
L Amplifier_Operational:TL072 U1
U 1 1 5CC06400
P 2650 2900
F 0 "U1" H 2650 2533 50  0000 C CNN
F 1 "TL072" H 2650 2624 50  0000 C CNN
F 2 "Package_DIP:DIP-8_W7.62mm_LongPads" H 2650 2900 50  0001 C CNN
F 3 "http://www.ti.com/lit/ds/symlink/tl071.pdf" H 2650 2900 50  0001 C CNN
	1    2650 2900
	1    0    0    1   
$EndComp
$Comp
L Amplifier_Operational:TL072 U1
U 2 1 5CC06475
P 2650 4650
F 0 "U1" H 2650 4283 50  0000 C CNN
F 1 "TL072" H 2650 4374 50  0000 C CNN
F 2 "Package_DIP:DIP-8_W7.62mm_LongPads" H 2650 4650 50  0001 C CNN
F 3 "http://www.ti.com/lit/ds/symlink/tl071.pdf" H 2650 4650 50  0001 C CNN
	2    2650 4650
	1    0    0    1   
$EndComp
$Comp
L Amplifier_Operational:TL072 U2
U 3 1 5CC064CC
P 5450 1350
F 0 "U2" H 5600 1450 50  0000 R CNN
F 1 "TL072" H 5650 1350 50  0000 R CNN
F 2 "Package_DIP:DIP-8_W7.62mm_LongPads" H 5450 1350 50  0001 C CNN
F 3 "http://www.ti.com/lit/ds/symlink/tl071.pdf" H 5450 1350 50  0001 C CNN
	3    5450 1350
	-1   0    0    -1  
$EndComp
$Comp
L Device:R R1
U 1 1 5CC0664A
P 1950 2800
F 0 "R1" V 1743 2800 50  0000 C CNN
F 1 "100k" V 1834 2800 50  0000 C CNN
F 2 "Resistor_THT:R_Axial_DIN0207_L6.3mm_D2.5mm_P10.16mm_Horizontal" V 1880 2800 50  0001 C CNN
F 3 "~" H 1950 2800 50  0001 C CNN
	1    1950 2800
	0    1    1    0   
$EndComp
Wire Wire Line
	1550 2800 1800 2800
$Comp
L power:GNDA #PWR0101
U 1 1 5CC067FF
P 2250 3200
F 0 "#PWR0101" H 2250 2950 50  0001 C CNN
F 1 "GNDA" H 2255 3027 50  0000 C CNN
F 2 "" H 2250 3200 50  0001 C CNN
F 3 "" H 2250 3200 50  0001 C CNN
	1    2250 3200
	1    0    0    -1  
$EndComp
Wire Wire Line
	2350 3000 2250 3000
Wire Wire Line
	2250 3000 2250 3200
$Comp
L Device:R R4
U 1 1 5CC06852
P 2650 2400
F 0 "R4" V 2443 2400 50  0000 C CNN
F 1 "100k" V 2534 2400 50  0000 C CNN
F 2 "Resistor_THT:R_Axial_DIN0207_L6.3mm_D2.5mm_P10.16mm_Horizontal" V 2580 2400 50  0001 C CNN
F 3 "~" H 2650 2400 50  0001 C CNN
	1    2650 2400
	0    1    1    0   
$EndComp
$Comp
L Device:C C1
U 1 1 5CC068B4
P 2650 2000
F 0 "C1" V 2398 2000 50  0000 C CNN
F 1 "10p" V 2489 2000 50  0000 C CNN
F 2 "Capacitor_THT:C_Rect_L7.2mm_W2.5mm_P5.00mm_FKS2_FKP2_MKS2_MKP2" H 2688 1850 50  0001 C CNN
F 3 "~" H 2650 2000 50  0001 C CNN
	1    2650 2000
	0    1    1    0   
$EndComp
Wire Wire Line
	2250 2800 2250 2400
Wire Wire Line
	2250 2400 2500 2400
Wire Wire Line
	2250 2400 2250 2000
Wire Wire Line
	2250 2000 2500 2000
Connection ~ 2250 2400
Wire Wire Line
	2800 2400 3000 2400
Wire Wire Line
	3000 2400 3000 2900
Wire Wire Line
	2800 2000 3000 2000
Wire Wire Line
	3000 2000 3000 2400
Connection ~ 3000 2400
$Comp
L Device:R_POT_TRIM RV2
U 1 1 5CC0782E
P 3600 3200
F 0 "RV2" H 3530 3154 50  0000 R CNN
F 1 "100k" H 3530 3245 50  0000 R CNN
F 2 "custom:alpha_9mm_horiz" H 3600 3200 50  0001 C CNN
F 3 "~" H 3600 3200 50  0001 C CNN
	1    3600 3200
	1    0    0    1   
$EndComp
Wire Wire Line
	3450 2900 3600 2900
Wire Wire Line
	3600 2900 3600 3050
$Comp
L power:GNDA #PWR0102
U 1 1 5CC07D9F
P 3600 3450
F 0 "#PWR0102" H 3600 3200 50  0001 C CNN
F 1 "GNDA" H 3605 3277 50  0000 C CNN
F 2 "" H 3600 3450 50  0001 C CNN
F 3 "" H 3600 3450 50  0001 C CNN
	1    3600 3450
	1    0    0    -1  
$EndComp
Wire Wire Line
	3600 3350 3600 3400
$Comp
L Device:R R7
U 1 1 5CC081B6
P 4050 3200
F 0 "R7" V 3843 3200 50  0000 C CNN
F 1 "10k" V 3934 3200 50  0000 C CNN
F 2 "Resistor_THT:R_Axial_DIN0207_L6.3mm_D2.5mm_P10.16mm_Horizontal" V 3980 3200 50  0001 C CNN
F 3 "~" H 4050 3200 50  0001 C CNN
	1    4050 3200
	0    1    1    0   
$EndComp
Wire Wire Line
	2350 2800 2250 2800
Wire Wire Line
	2250 2800 2100 2800
Connection ~ 2250 2800
Wire Wire Line
	2950 2900 3000 2900
Wire Wire Line
	3000 2900 3150 2900
Connection ~ 3000 2900
$Comp
L Device:R R9
U 1 1 5CC0864E
P 4700 2800
F 0 "R9" V 4493 2800 50  0000 C CNN
F 1 "10k" V 4584 2800 50  0000 C CNN
F 2 "Resistor_THT:R_Axial_DIN0207_L6.3mm_D2.5mm_P10.16mm_Horizontal" V 4630 2800 50  0001 C CNN
F 3 "~" H 4700 2800 50  0001 C CNN
	1    4700 2800
	0    1    1    0   
$EndComp
$Comp
L Device:C C9
U 1 1 5CC08654
P 4700 2400
F 0 "C9" V 4448 2400 50  0000 C CNN
F 1 "10p" V 4539 2400 50  0000 C CNN
F 2 "Capacitor_THT:C_Rect_L7.2mm_W2.5mm_P5.00mm_FKS2_FKP2_MKS2_MKP2" H 4738 2250 50  0001 C CNN
F 3 "~" H 4700 2400 50  0001 C CNN
	1    4700 2400
	0    1    1    0   
$EndComp
Wire Wire Line
	4300 3200 4300 2800
Wire Wire Line
	4300 2800 4550 2800
Wire Wire Line
	4300 2800 4300 2400
Wire Wire Line
	4300 2400 4550 2400
Connection ~ 4300 2800
Wire Wire Line
	4850 2800 5050 2800
Wire Wire Line
	5050 2800 5050 3300
Wire Wire Line
	4850 2400 5050 2400
Wire Wire Line
	5050 2400 5050 2800
Connection ~ 5050 2800
$Comp
L Amplifier_Operational:TL072 U2
U 1 1 5CC088BE
P 4700 3300
F 0 "U2" H 4700 2933 50  0000 C CNN
F 1 "TL072" H 4700 3024 50  0000 C CNN
F 2 "Package_DIP:DIP-8_W7.62mm_LongPads" H 4700 3300 50  0001 C CNN
F 3 "http://www.ti.com/lit/ds/symlink/tl071.pdf" H 4700 3300 50  0001 C CNN
	1    4700 3300
	1    0    0    1   
$EndComp
Wire Wire Line
	5000 3300 5050 3300
Wire Wire Line
	4400 3200 4300 3200
Wire Wire Line
	4300 3200 4200 3200
Connection ~ 4300 3200
Wire Wire Line
	3900 3200 3750 3200
$Comp
L Device:D D1
U 1 1 5CC09A8E
P 5550 3050
F 0 "D1" V 5504 3129 50  0000 L CNN
F 1 "1N4148" V 5595 3129 50  0000 L CNN
F 2 "Diode_THT:D_DO-34_SOD68_P7.62mm_Horizontal" H 5550 3050 50  0001 C CNN
F 3 "~" H 5550 3050 50  0001 C CNN
	1    5550 3050
	0    1    1    0   
$EndComp
$Comp
L Device:D D2
U 1 1 5CC09B7E
P 5550 3550
F 0 "D2" V 5504 3629 50  0000 L CNN
F 1 "1N4148" V 5595 3629 50  0000 L CNN
F 2 "Diode_THT:D_DO-34_SOD68_P7.62mm_Horizontal" H 5550 3550 50  0001 C CNN
F 3 "~" H 5550 3550 50  0001 C CNN
	1    5550 3550
	0    1    1    0   
$EndComp
Wire Wire Line
	5050 3300 5550 3300
Wire Wire Line
	5550 3300 5550 3200
Connection ~ 5050 3300
Wire Wire Line
	5550 3300 5550 3400
Connection ~ 5550 3300
$Comp
L power:+12VA #PWR0103
U 1 1 5CC0A6CD
P 5550 2850
F 0 "#PWR0103" H 5550 2700 50  0001 C CNN
F 1 "+12VA" H 5565 3023 50  0000 C CNN
F 2 "" H 5550 2850 50  0001 C CNN
F 3 "" H 5550 2850 50  0001 C CNN
	1    5550 2850
	1    0    0    -1  
$EndComp
Wire Wire Line
	5550 2900 5550 2850
$Comp
L power:-12VA #PWR0104
U 1 1 5CC0AB0F
P 5550 3800
F 0 "#PWR0104" H 5550 3650 50  0001 C CNN
F 1 "-12VA" H 5565 3973 50  0000 C CNN
F 2 "" H 5550 3800 50  0001 C CNN
F 3 "" H 5550 3800 50  0001 C CNN
	1    5550 3800
	-1   0    0    1   
$EndComp
Wire Wire Line
	7150 3250 6950 3250
Wire Wire Line
	6950 3250 6950 3350
Wire Wire Line
	7150 3350 7050 3350
Wire Wire Line
	7050 3350 7050 3700
Wire Wire Line
	7050 3700 7000 3700
Wire Wire Line
	6950 3700 6950 3650
$Comp
L Device:R R17
U 1 1 5CC0C71F
P 6950 3500
F 0 "R17" H 6881 3454 50  0000 R CNN
F 1 "1k" H 6881 3545 50  0000 R CNN
F 2 "Resistor_THT:R_Axial_DIN0207_L6.3mm_D2.5mm_P10.16mm_Horizontal" V 6880 3500 50  0001 C CNN
F 3 "~" H 6950 3500 50  0001 C CNN
	1    6950 3500
	1    0    0    1   
$EndComp
$Comp
L power:GNDA #PWR0105
U 1 1 5CC0CD93
P 7000 3750
F 0 "#PWR0105" H 7000 3500 50  0001 C CNN
F 1 "GNDA" H 7005 3577 50  0000 C CNN
F 2 "" H 7000 3750 50  0001 C CNN
F 3 "" H 7000 3750 50  0001 C CNN
	1    7000 3750
	1    0    0    -1  
$EndComp
Wire Wire Line
	7000 3700 7000 3750
Connection ~ 7000 3700
Wire Wire Line
	7000 3700 6950 3700
$Comp
L Device:R R15
U 1 1 5CC0D33B
P 6100 3300
F 0 "R15" V 5893 3300 50  0000 C CNN
F 1 "1k" V 5984 3300 50  0000 C CNN
F 2 "Resistor_THT:R_Axial_DIN0207_L6.3mm_D2.5mm_P10.16mm_Horizontal" V 6030 3300 50  0001 C CNN
F 3 "~" H 6100 3300 50  0001 C CNN
	1    6100 3300
	0    -1   1    0   
$EndComp
Wire Wire Line
	5550 3300 5950 3300
Wire Wire Line
	6250 3300 6650 3300
Wire Wire Line
	6650 3300 6650 3050
Wire Wire Line
	6650 3050 7150 3050
NoConn ~ 7150 2950
NoConn ~ 7150 3150
$Comp
L Device:R R2
U 1 1 5CC0F7BF
P 1950 4550
F 0 "R2" V 1743 4550 50  0000 C CNN
F 1 "100k" V 1834 4550 50  0000 C CNN
F 2 "Resistor_THT:R_Axial_DIN0207_L6.3mm_D2.5mm_P10.16mm_Horizontal" V 1880 4550 50  0001 C CNN
F 3 "~" H 1950 4550 50  0001 C CNN
	1    1950 4550
	0    1    1    0   
$EndComp
$Comp
L power:GNDA #PWR0106
U 1 1 5CC0F7C6
P 2250 4950
F 0 "#PWR0106" H 2250 4700 50  0001 C CNN
F 1 "GNDA" H 2255 4777 50  0000 C CNN
F 2 "" H 2250 4950 50  0001 C CNN
F 3 "" H 2250 4950 50  0001 C CNN
	1    2250 4950
	1    0    0    -1  
$EndComp
Wire Wire Line
	2350 4750 2250 4750
Wire Wire Line
	2250 4750 2250 4950
$Comp
L Device:R R5
U 1 1 5CC0F7CE
P 2650 4150
F 0 "R5" V 2443 4150 50  0000 C CNN
F 1 "100k" V 2534 4150 50  0000 C CNN
F 2 "Resistor_THT:R_Axial_DIN0207_L6.3mm_D2.5mm_P10.16mm_Horizontal" V 2580 4150 50  0001 C CNN
F 3 "~" H 2650 4150 50  0001 C CNN
	1    2650 4150
	0    1    1    0   
$EndComp
$Comp
L Device:C C2
U 1 1 5CC0F7D5
P 2650 3750
F 0 "C2" V 2398 3750 50  0000 C CNN
F 1 "10p" V 2489 3750 50  0000 C CNN
F 2 "Capacitor_THT:C_Rect_L7.2mm_W2.5mm_P5.00mm_FKS2_FKP2_MKS2_MKP2" H 2688 3600 50  0001 C CNN
F 3 "~" H 2650 3750 50  0001 C CNN
	1    2650 3750
	0    1    1    0   
$EndComp
Wire Wire Line
	2250 4550 2250 4150
Wire Wire Line
	2250 4150 2500 4150
Wire Wire Line
	2250 4150 2250 3750
Wire Wire Line
	2250 3750 2500 3750
Connection ~ 2250 4150
Wire Wire Line
	2800 4150 3000 4150
Wire Wire Line
	3000 4150 3000 4650
Wire Wire Line
	2800 3750 3000 3750
Wire Wire Line
	3000 3750 3000 4150
Connection ~ 3000 4150
$Comp
L Device:R_POT_TRIM RV3
U 1 1 5CC0F7ED
P 3600 4950
F 0 "RV3" H 3530 4904 50  0000 R CNN
F 1 "100k" H 3530 4995 50  0000 R CNN
F 2 "custom:alpha_9mm_horiz" H 3600 4950 50  0001 C CNN
F 3 "~" H 3600 4950 50  0001 C CNN
	1    3600 4950
	1    0    0    1   
$EndComp
Wire Wire Line
	3450 4650 3600 4650
Wire Wire Line
	3600 4650 3600 4800
$Comp
L power:GNDA #PWR0107
U 1 1 5CC0F7F6
P 3600 5200
F 0 "#PWR0107" H 3600 4950 50  0001 C CNN
F 1 "GNDA" H 3605 5027 50  0000 C CNN
F 2 "" H 3600 5200 50  0001 C CNN
F 3 "" H 3600 5200 50  0001 C CNN
	1    3600 5200
	1    0    0    -1  
$EndComp
Wire Wire Line
	3600 5100 3600 5150
$Comp
L Device:R R8
U 1 1 5CC0F7FD
P 4050 4950
F 0 "R8" V 3843 4950 50  0000 C CNN
F 1 "10k" V 3934 4950 50  0000 C CNN
F 2 "Resistor_THT:R_Axial_DIN0207_L6.3mm_D2.5mm_P10.16mm_Horizontal" V 3980 4950 50  0001 C CNN
F 3 "~" H 4050 4950 50  0001 C CNN
	1    4050 4950
	0    1    1    0   
$EndComp
$Comp
L Device:R R10
U 1 1 5CC0F80A
P 4700 4550
F 0 "R10" V 4493 4550 50  0000 C CNN
F 1 "10k" V 4584 4550 50  0000 C CNN
F 2 "Resistor_THT:R_Axial_DIN0207_L6.3mm_D2.5mm_P10.16mm_Horizontal" V 4630 4550 50  0001 C CNN
F 3 "~" H 4700 4550 50  0001 C CNN
	1    4700 4550
	0    1    1    0   
$EndComp
$Comp
L Device:C C10
U 1 1 5CC0F811
P 4700 4150
F 0 "C10" V 4448 4150 50  0000 C CNN
F 1 "10p" V 4539 4150 50  0000 C CNN
F 2 "Capacitor_THT:C_Rect_L7.2mm_W2.5mm_P5.00mm_FKS2_FKP2_MKS2_MKP2" H 4738 4000 50  0001 C CNN
F 3 "~" H 4700 4150 50  0001 C CNN
	1    4700 4150
	0    1    1    0   
$EndComp
Wire Wire Line
	4300 4950 4300 4550
Wire Wire Line
	4300 4550 4550 4550
Wire Wire Line
	4300 4550 4300 4150
Wire Wire Line
	4300 4150 4550 4150
Connection ~ 4300 4550
Wire Wire Line
	4850 4550 5050 4550
Wire Wire Line
	5050 4550 5050 5050
Wire Wire Line
	4850 4150 5050 4150
Wire Wire Line
	5050 4150 5050 4550
Connection ~ 5050 4550
Wire Wire Line
	5000 5050 5050 5050
Wire Wire Line
	4400 4950 4300 4950
Wire Wire Line
	4300 4950 4200 4950
Connection ~ 4300 4950
Wire Wire Line
	3900 4950 3750 4950
$Comp
L Device:D D3
U 1 1 5CC0F82E
P 5550 4800
F 0 "D3" V 5504 4879 50  0000 L CNN
F 1 "1N4148" V 5595 4879 50  0000 L CNN
F 2 "Diode_THT:D_DO-34_SOD68_P7.62mm_Horizontal" H 5550 4800 50  0001 C CNN
F 3 "~" H 5550 4800 50  0001 C CNN
	1    5550 4800
	0    1    1    0   
$EndComp
$Comp
L Device:D D4
U 1 1 5CC0F835
P 5550 5300
F 0 "D4" V 5504 5379 50  0000 L CNN
F 1 "1N4148" V 5595 5379 50  0000 L CNN
F 2 "Diode_THT:D_DO-34_SOD68_P7.62mm_Horizontal" H 5550 5300 50  0001 C CNN
F 3 "~" H 5550 5300 50  0001 C CNN
	1    5550 5300
	0    1    1    0   
$EndComp
Wire Wire Line
	5050 5050 5550 5050
Wire Wire Line
	5550 5050 5550 4950
Connection ~ 5050 5050
Wire Wire Line
	5550 5050 5550 5150
Connection ~ 5550 5050
$Comp
L power:+12VA #PWR0108
U 1 1 5CC0F841
P 5550 4600
F 0 "#PWR0108" H 5550 4450 50  0001 C CNN
F 1 "+12VA" H 5565 4773 50  0000 C CNN
F 2 "" H 5550 4600 50  0001 C CNN
F 3 "" H 5550 4600 50  0001 C CNN
	1    5550 4600
	1    0    0    -1  
$EndComp
Wire Wire Line
	5550 4650 5550 4600
$Comp
L power:-12VA #PWR0109
U 1 1 5CC0F848
P 5550 5550
F 0 "#PWR0109" H 5550 5400 50  0001 C CNN
F 1 "-12VA" H 5565 5723 50  0000 C CNN
F 2 "" H 5550 5550 50  0001 C CNN
F 3 "" H 5550 5550 50  0001 C CNN
	1    5550 5550
	-1   0    0    1   
$EndComp
Wire Wire Line
	5550 5450 5550 5550
Wire Wire Line
	7150 5000 6950 5000
Wire Wire Line
	6950 5000 6950 5100
Wire Wire Line
	7150 5100 7050 5100
Wire Wire Line
	7050 5100 7050 5450
Wire Wire Line
	7050 5450 7000 5450
Wire Wire Line
	6950 5450 6950 5400
$Comp
L Device:R R18
U 1 1 5CC0F85C
P 6950 5250
F 0 "R18" H 6881 5204 50  0000 R CNN
F 1 "1k" H 6881 5295 50  0000 R CNN
F 2 "Resistor_THT:R_Axial_DIN0207_L6.3mm_D2.5mm_P10.16mm_Horizontal" V 6880 5250 50  0001 C CNN
F 3 "~" H 6950 5250 50  0001 C CNN
	1    6950 5250
	1    0    0    1   
$EndComp
$Comp
L power:GNDA #PWR0110
U 1 1 5CC0F863
P 7000 5500
F 0 "#PWR0110" H 7000 5250 50  0001 C CNN
F 1 "GNDA" H 7005 5327 50  0000 C CNN
F 2 "" H 7000 5500 50  0001 C CNN
F 3 "" H 7000 5500 50  0001 C CNN
	1    7000 5500
	1    0    0    -1  
$EndComp
Wire Wire Line
	7000 5450 7000 5500
Connection ~ 7000 5450
Wire Wire Line
	7000 5450 6950 5450
$Comp
L Device:R R16
U 1 1 5CC0F86C
P 6100 5050
F 0 "R16" V 5893 5050 50  0000 C CNN
F 1 "1k" V 5984 5050 50  0000 C CNN
F 2 "Resistor_THT:R_Axial_DIN0207_L6.3mm_D2.5mm_P10.16mm_Horizontal" V 6030 5050 50  0001 C CNN
F 3 "~" H 6100 5050 50  0001 C CNN
	1    6100 5050
	0    -1   1    0   
$EndComp
Wire Wire Line
	5550 5050 5950 5050
Wire Wire Line
	6250 5050 6650 5050
Wire Wire Line
	6650 5050 6650 4800
Wire Wire Line
	6650 4800 7150 4800
NoConn ~ 7150 4700
NoConn ~ 7150 4900
Wire Wire Line
	1800 4550 1550 4550
$Comp
L Amplifier_Operational:TL072 U2
U 2 1 5CC160B8
P 4700 5050
F 0 "U2" H 4700 4683 50  0000 C CNN
F 1 "TL072" H 4700 4774 50  0000 C CNN
F 2 "Package_DIP:DIP-8_W7.62mm_LongPads" H 4700 5050 50  0001 C CNN
F 3 "http://www.ti.com/lit/ds/symlink/tl071.pdf" H 4700 5050 50  0001 C CNN
	2    4700 5050
	1    0    0    1   
$EndComp
Wire Wire Line
	4400 3400 3600 3400
Connection ~ 3600 3400
Wire Wire Line
	3600 3400 3600 3450
Wire Wire Line
	4400 5150 3600 5150
Connection ~ 3600 5150
Wire Wire Line
	3600 5150 3600 5200
$Comp
L Amplifier_Operational:TL072 U1
U 3 1 5CC1AAD2
P 7200 1250
F 0 "U1" H 7158 1296 50  0000 L CNN
F 1 "TL072" H 7158 1205 50  0000 L CNN
F 2 "Package_DIP:DIP-8_W7.62mm_LongPads" H 7200 1250 50  0001 C CNN
F 3 "http://www.ti.com/lit/ds/symlink/tl071.pdf" H 7200 1250 50  0001 C CNN
	3    7200 1250
	1    0    0    -1  
$EndComp
$Comp
L power:+12VA #PWR0111
U 1 1 5CC223B6
P 5550 1000
F 0 "#PWR0111" H 5550 850 50  0001 C CNN
F 1 "+12VA" H 5565 1173 50  0000 C CNN
F 2 "" H 5550 1000 50  0001 C CNN
F 3 "" H 5550 1000 50  0001 C CNN
	1    5550 1000
	1    0    0    -1  
$EndComp
Wire Wire Line
	5550 1050 5550 1000
$Comp
L power:-12VA #PWR0112
U 1 1 5CC24A82
P 5550 1750
F 0 "#PWR0112" H 5550 1600 50  0001 C CNN
F 1 "-12VA" H 5565 1923 50  0000 C CNN
F 2 "" H 5550 1750 50  0001 C CNN
F 3 "" H 5550 1750 50  0001 C CNN
	1    5550 1750
	-1   0    0    1   
$EndComp
$Comp
L power:GNDA #PWR0113
U 1 1 5CC272F1
P 6400 1500
F 0 "#PWR0113" H 6400 1250 50  0001 C CNN
F 1 "GNDA" H 6405 1327 50  0000 C CNN
F 2 "" H 6400 1500 50  0001 C CNN
F 3 "" H 6400 1500 50  0001 C CNN
	1    6400 1500
	1    0    0    -1  
$EndComp
$Comp
L Device:C C15
U 1 1 5CC27367
P 5900 1200
F 0 "C15" H 6015 1246 50  0000 L CNN
F 1 "100n" H 6015 1155 50  0000 L CNN
F 2 "Capacitor_THT:C_Rect_L7.2mm_W2.5mm_P5.00mm_FKS2_FKP2_MKS2_MKP2" H 5938 1050 50  0001 C CNN
F 3 "~" H 5900 1200 50  0001 C CNN
	1    5900 1200
	1    0    0    -1  
$EndComp
$Comp
L Device:C C16
U 1 1 5CC387DF
P 5900 1600
F 0 "C16" H 6015 1646 50  0000 L CNN
F 1 "100n" H 6015 1555 50  0000 L CNN
F 2 "Capacitor_THT:C_Rect_L7.2mm_W2.5mm_P5.00mm_FKS2_FKP2_MKS2_MKP2" H 5938 1450 50  0001 C CNN
F 3 "~" H 5900 1600 50  0001 C CNN
	1    5900 1600
	1    0    0    -1  
$EndComp
Wire Wire Line
	5900 1350 5900 1400
Wire Wire Line
	5900 1400 6400 1400
Connection ~ 5900 1400
Wire Wire Line
	5900 1400 5900 1450
Wire Wire Line
	5900 1050 5550 1050
Connection ~ 5550 1050
Wire Wire Line
	5900 1750 5550 1750
Wire Wire Line
	5550 1650 5550 1750
Connection ~ 5550 1750
Wire Wire Line
	6400 1400 6400 1500
$Comp
L power:+12VA #PWR0114
U 1 1 5CC560B1
P 7100 900
F 0 "#PWR0114" H 7100 750 50  0001 C CNN
F 1 "+12VA" H 7115 1073 50  0000 C CNN
F 2 "" H 7100 900 50  0001 C CNN
F 3 "" H 7100 900 50  0001 C CNN
	1    7100 900 
	1    0    0    -1  
$EndComp
Wire Wire Line
	7100 950  7100 900 
$Comp
L power:-12VA #PWR0115
U 1 1 5CC560B8
P 7100 1650
F 0 "#PWR0115" H 7100 1500 50  0001 C CNN
F 1 "-12VA" H 7115 1823 50  0000 C CNN
F 2 "" H 7100 1650 50  0001 C CNN
F 3 "" H 7100 1650 50  0001 C CNN
	1    7100 1650
	-1   0    0    1   
$EndComp
$Comp
L power:GNDA #PWR0116
U 1 1 5CC560BE
P 7950 1400
F 0 "#PWR0116" H 7950 1150 50  0001 C CNN
F 1 "GNDA" H 7955 1227 50  0000 C CNN
F 2 "" H 7950 1400 50  0001 C CNN
F 3 "" H 7950 1400 50  0001 C CNN
	1    7950 1400
	1    0    0    -1  
$EndComp
$Comp
L Device:C C19
U 1 1 5CC560C4
P 7450 1100
F 0 "C19" H 7565 1146 50  0000 L CNN
F 1 "100n" H 7565 1055 50  0000 L CNN
F 2 "Capacitor_THT:C_Rect_L7.2mm_W2.5mm_P5.00mm_FKS2_FKP2_MKS2_MKP2" H 7488 950 50  0001 C CNN
F 3 "~" H 7450 1100 50  0001 C CNN
	1    7450 1100
	1    0    0    -1  
$EndComp
$Comp
L Device:C C20
U 1 1 5CC560CB
P 7450 1500
F 0 "C20" H 7565 1546 50  0000 L CNN
F 1 "100n" H 7565 1455 50  0000 L CNN
F 2 "Capacitor_THT:C_Rect_L7.2mm_W2.5mm_P5.00mm_FKS2_FKP2_MKS2_MKP2" H 7488 1350 50  0001 C CNN
F 3 "~" H 7450 1500 50  0001 C CNN
	1    7450 1500
	1    0    0    -1  
$EndComp
Wire Wire Line
	7450 1250 7450 1300
Wire Wire Line
	7450 1300 7950 1300
Connection ~ 7450 1300
Wire Wire Line
	7450 1300 7450 1350
Wire Wire Line
	7450 950  7100 950 
Wire Wire Line
	7450 1650 7100 1650
Wire Wire Line
	7100 1550 7100 1650
Connection ~ 7100 1650
Wire Wire Line
	7950 1300 7950 1400
Connection ~ 7100 950 
Text Label 3600 2900 0    50   ~ 0
RIGHT_SUM
Text Label 3600 4650 0    50   ~ 0
LEFT_SUM
Text Label 3200 7900 2    50   ~ 0
RIGHT_SUM
Text Label 3200 8400 2    50   ~ 0
LEFT_SUM
$Comp
L Device:R_POT_Dual RV4
U 1 1 5CD24EF3
P 3900 8350
F 0 "RV4" V 4450 8350 50  0000 R CNN
F 1 "100k" V 4550 8350 50  0000 R CNN
F 2 "Connector_PinHeader_2.54mm:PinHeader_1x06_P2.54mm_Vertical" H 4150 8275 50  0001 C CNN
F 3 "~" H 4150 8275 50  0001 C CNN
	1    3900 8350
	0    1    -1   0   
$EndComp
Wire Wire Line
	3800 7900 3800 7950
Wire Wire Line
	3800 8400 3800 8450
Wire Wire Line
	3800 8250 3800 8300
Wire Wire Line
	3800 8300 4100 8300
Wire Wire Line
	4100 8300 4100 9000
Wire Wire Line
	4100 9000 3800 9000
Wire Wire Line
	3800 9000 3800 8750
Wire Wire Line
	3800 9000 3800 9150
Connection ~ 3800 9000
$Comp
L power:GNDA #PWR09
U 1 1 5CD495F8
P 3800 9150
F 0 "#PWR09" H 3800 8900 50  0001 C CNN
F 1 "GNDA" H 3805 8977 50  0000 C CNN
F 2 "" H 3800 9150 50  0001 C CNN
F 3 "" H 3800 9150 50  0001 C CNN
	1    3800 9150
	1    0    0    -1  
$EndComp
$Comp
L Amplifier_Operational:NE5532 U4
U 1 1 5CD6BA59
P 6200 7750
F 0 "U4" H 6200 7383 50  0000 C CNN
F 1 "NE5532" H 6200 7474 50  0000 C CNN
F 2 "Package_DIP:DIP-8_W7.62mm_LongPads" H 6200 7750 50  0001 C CNN
F 3 "http://www.ti.com/lit/ds/symlink/ne5532.pdf" H 6200 7750 50  0001 C CNN
	1    6200 7750
	1    0    0    1   
$EndComp
$Comp
L Device:R R19
U 1 1 5CD6D240
P 5550 7650
F 0 "R19" V 5343 7650 50  0000 C CNN
F 1 "10k" V 5434 7650 50  0000 C CNN
F 2 "Resistor_THT:R_Axial_DIN0207_L6.3mm_D2.5mm_P10.16mm_Horizontal" V 5480 7650 50  0001 C CNN
F 3 "~" H 5550 7650 50  0001 C CNN
	1    5550 7650
	0    1    1    0   
$EndComp
Wire Wire Line
	5700 7650 5800 7650
$Comp
L Device:R R21
U 1 1 5CD96123
P 6200 7200
F 0 "R21" V 5993 7200 50  0000 C CNN
F 1 "3.9k" V 6084 7200 50  0000 C CNN
F 2 "Resistor_THT:R_Axial_DIN0207_L6.3mm_D2.5mm_P10.16mm_Horizontal" V 6130 7200 50  0001 C CNN
F 3 "~" H 6200 7200 50  0001 C CNN
	1    6200 7200
	0    1    1    0   
$EndComp
Wire Wire Line
	5800 7650 5800 7200
Wire Wire Line
	5800 7200 6050 7200
Connection ~ 5800 7650
Wire Wire Line
	5800 7650 5900 7650
Wire Wire Line
	6350 7200 6650 7200
Wire Wire Line
	6650 7200 6650 7750
Wire Wire Line
	6650 7750 6500 7750
$Comp
L Amplifier_Operational:NE5532 U4
U 2 1 5CDA47ED
P 7100 7450
F 0 "U4" H 7100 7250 50  0000 C CNN
F 1 "NE5532" H 7350 7250 50  0000 C CNN
F 2 "Package_DIP:DIP-8_W7.62mm_LongPads" H 7100 7450 50  0001 C CNN
F 3 "http://www.ti.com/lit/ds/symlink/ne5532.pdf" H 7100 7450 50  0001 C CNN
	2    7100 7450
	1    0    0    1   
$EndComp
$Comp
L power:GNDA #PWR013
U 1 1 5CDA48BC
P 5800 7900
F 0 "#PWR013" H 5800 7650 50  0001 C CNN
F 1 "GNDA" H 5805 7727 50  0000 C CNN
F 2 "" H 5800 7900 50  0001 C CNN
F 3 "" H 5800 7900 50  0001 C CNN
	1    5800 7900
	1    0    0    -1  
$EndComp
Wire Wire Line
	5900 7850 5800 7850
Wire Wire Line
	5800 7850 5800 7900
Wire Wire Line
	6800 7550 6800 7750
Wire Wire Line
	6800 7750 6650 7750
Connection ~ 6650 7750
Wire Wire Line
	6800 7350 6750 7350
Wire Wire Line
	6750 7350 6750 7150
Wire Wire Line
	6750 7150 7550 7150
Wire Wire Line
	7550 7150 7550 7450
Wire Wire Line
	7550 7450 7400 7450
$Comp
L Device:R R23
U 1 1 5CDBBDCE
P 7850 7450
F 0 "R23" V 7643 7450 50  0000 C CNN
F 1 "75R" V 7734 7450 50  0000 C CNN
F 2 "Resistor_THT:R_Axial_DIN0207_L6.3mm_D2.5mm_P10.16mm_Horizontal" V 7780 7450 50  0001 C CNN
F 3 "~" H 7850 7450 50  0001 C CNN
	1    7850 7450
	0    1    1    0   
$EndComp
$Comp
L Device:R R24
U 1 1 5CDBBF00
P 7850 7750
F 0 "R24" V 7643 7750 50  0000 C CNN
F 1 "75R" V 7734 7750 50  0000 C CNN
F 2 "Resistor_THT:R_Axial_DIN0207_L6.3mm_D2.5mm_P10.16mm_Horizontal" V 7780 7750 50  0001 C CNN
F 3 "~" H 7850 7750 50  0001 C CNN
	1    7850 7750
	0    1    1    0   
$EndComp
Wire Wire Line
	6800 7750 7700 7750
Connection ~ 6800 7750
Wire Wire Line
	7700 7450 7550 7450
Connection ~ 7550 7450
Wire Wire Line
	8000 7450 8200 7450
Wire Wire Line
	8200 7450 8200 7750
Wire Wire Line
	8200 7750 8000 7750
$Comp
L Amplifier_Operational:NE5532 U5
U 1 1 5CDD4AC5
P 6200 8800
F 0 "U5" H 6200 8433 50  0000 C CNN
F 1 "NE5532" H 6200 8524 50  0000 C CNN
F 2 "Package_DIP:DIP-8_W7.62mm_LongPads" H 6200 8800 50  0001 C CNN
F 3 "http://www.ti.com/lit/ds/symlink/ne5532.pdf" H 6200 8800 50  0001 C CNN
	1    6200 8800
	1    0    0    1   
$EndComp
$Comp
L Device:R R20
U 1 1 5CDD4ACC
P 5550 8700
F 0 "R20" V 5343 8700 50  0000 C CNN
F 1 "10k" V 5434 8700 50  0000 C CNN
F 2 "Resistor_THT:R_Axial_DIN0207_L6.3mm_D2.5mm_P10.16mm_Horizontal" V 5480 8700 50  0001 C CNN
F 3 "~" H 5550 8700 50  0001 C CNN
	1    5550 8700
	0    1    1    0   
$EndComp
Wire Wire Line
	5700 8700 5800 8700
$Comp
L Device:R R22
U 1 1 5CDD4AD4
P 6200 8250
F 0 "R22" V 5993 8250 50  0000 C CNN
F 1 "3.9k" V 6084 8250 50  0000 C CNN
F 2 "Resistor_THT:R_Axial_DIN0207_L6.3mm_D2.5mm_P10.16mm_Horizontal" V 6130 8250 50  0001 C CNN
F 3 "~" H 6200 8250 50  0001 C CNN
	1    6200 8250
	0    1    1    0   
$EndComp
Wire Wire Line
	5800 8700 5800 8250
Wire Wire Line
	5800 8250 6050 8250
Connection ~ 5800 8700
Wire Wire Line
	5800 8700 5900 8700
Wire Wire Line
	6350 8250 6650 8250
Wire Wire Line
	6650 8250 6650 8800
Wire Wire Line
	6650 8800 6500 8800
$Comp
L Amplifier_Operational:NE5532 U5
U 2 1 5CDD4AE2
P 7100 8500
F 0 "U5" H 7100 8300 50  0000 C CNN
F 1 "NE5532" H 7350 8300 50  0000 C CNN
F 2 "Package_DIP:DIP-8_W7.62mm_LongPads" H 7100 8500 50  0001 C CNN
F 3 "http://www.ti.com/lit/ds/symlink/ne5532.pdf" H 7100 8500 50  0001 C CNN
	2    7100 8500
	1    0    0    1   
$EndComp
$Comp
L power:GNDA #PWR014
U 1 1 5CDD4AE9
P 5800 8950
F 0 "#PWR014" H 5800 8700 50  0001 C CNN
F 1 "GNDA" H 5805 8777 50  0000 C CNN
F 2 "" H 5800 8950 50  0001 C CNN
F 3 "" H 5800 8950 50  0001 C CNN
	1    5800 8950
	1    0    0    -1  
$EndComp
Wire Wire Line
	5900 8900 5800 8900
Wire Wire Line
	5800 8900 5800 8950
Wire Wire Line
	6800 8600 6800 8800
Wire Wire Line
	6800 8800 6650 8800
Connection ~ 6650 8800
Wire Wire Line
	6800 8400 6750 8400
Wire Wire Line
	6750 8400 6750 8200
Wire Wire Line
	6750 8200 7550 8200
Wire Wire Line
	7550 8200 7550 8500
Wire Wire Line
	7550 8500 7400 8500
$Comp
L Device:R R25
U 1 1 5CDD4AF9
P 7850 8500
F 0 "R25" V 7643 8500 50  0000 C CNN
F 1 "75R" V 7734 8500 50  0000 C CNN
F 2 "Resistor_THT:R_Axial_DIN0207_L6.3mm_D2.5mm_P10.16mm_Horizontal" V 7780 8500 50  0001 C CNN
F 3 "~" H 7850 8500 50  0001 C CNN
	1    7850 8500
	0    1    1    0   
$EndComp
$Comp
L Device:R R26
U 1 1 5CDD4B00
P 7850 8800
F 0 "R26" V 7643 8800 50  0000 C CNN
F 1 "75R" V 7734 8800 50  0000 C CNN
F 2 "Resistor_THT:R_Axial_DIN0207_L6.3mm_D2.5mm_P10.16mm_Horizontal" V 7780 8800 50  0001 C CNN
F 3 "~" H 7850 8800 50  0001 C CNN
	1    7850 8800
	0    1    1    0   
$EndComp
Wire Wire Line
	6800 8800 7700 8800
Connection ~ 6800 8800
Wire Wire Line
	7700 8500 7550 8500
Connection ~ 7550 8500
Wire Wire Line
	8000 8500 8200 8500
Wire Wire Line
	8200 8500 8200 8800
Wire Wire Line
	8200 8800 8000 8800
Wire Wire Line
	8800 8250 8500 8250
Wire Wire Line
	8500 8250 8500 8500
Wire Wire Line
	8500 8500 8200 8500
Connection ~ 8200 8500
Wire Wire Line
	8800 8050 8500 8050
Wire Wire Line
	8500 8050 8500 7750
Wire Wire Line
	8500 7750 8200 7750
Connection ~ 8200 7750
Wire Wire Line
	8800 7950 8700 7950
Wire Wire Line
	8700 7950 8700 7700
Wire Wire Line
	8700 7700 9450 7700
Wire Wire Line
	9450 7700 9450 8550
$Comp
L power:GNDA #PWR018
U 1 1 5CE136E7
P 9450 8550
F 0 "#PWR018" H 9450 8300 50  0001 C CNN
F 1 "GNDA" H 9455 8377 50  0000 C CNN
F 2 "" H 9450 8550 50  0001 C CNN
F 3 "" H 9450 8550 50  0001 C CNN
	1    9450 8550
	1    0    0    -1  
$EndComp
NoConn ~ 8800 8150
NoConn ~ 8800 8350
$Comp
L power:+12VA #PWR06
U 1 1 5CE29CC6
P 2750 9600
F 0 "#PWR06" H 2750 9450 50  0001 C CNN
F 1 "+12VA" H 2765 9773 50  0000 C CNN
F 2 "" H 2750 9600 50  0001 C CNN
F 3 "" H 2750 9600 50  0001 C CNN
	1    2750 9600
	1    0    0    -1  
$EndComp
Wire Wire Line
	2750 9650 2750 9600
$Comp
L power:-12VA #PWR07
U 1 1 5CE29CCD
P 2750 10350
F 0 "#PWR07" H 2750 10200 50  0001 C CNN
F 1 "-12VA" H 2765 10523 50  0000 C CNN
F 2 "" H 2750 10350 50  0001 C CNN
F 3 "" H 2750 10350 50  0001 C CNN
	1    2750 10350
	-1   0    0    1   
$EndComp
$Comp
L power:GNDA #PWR08
U 1 1 5CE29CD3
P 3600 10100
F 0 "#PWR08" H 3600 9850 50  0001 C CNN
F 1 "GNDA" H 3605 9927 50  0000 C CNN
F 2 "" H 3600 10100 50  0001 C CNN
F 3 "" H 3600 10100 50  0001 C CNN
	1    3600 10100
	1    0    0    -1  
$EndComp
$Comp
L Device:C C11
U 1 1 5CE29CD9
P 3100 9800
F 0 "C11" H 3215 9846 50  0000 L CNN
F 1 "100n" H 3215 9755 50  0000 L CNN
F 2 "Capacitor_THT:C_Rect_L7.2mm_W2.5mm_P5.00mm_FKS2_FKP2_MKS2_MKP2" H 3138 9650 50  0001 C CNN
F 3 "~" H 3100 9800 50  0001 C CNN
	1    3100 9800
	1    0    0    -1  
$EndComp
$Comp
L Device:C C12
U 1 1 5CE29CE0
P 3100 10200
F 0 "C12" H 3215 10246 50  0000 L CNN
F 1 "100n" H 3215 10155 50  0000 L CNN
F 2 "Capacitor_THT:C_Rect_L7.2mm_W2.5mm_P5.00mm_FKS2_FKP2_MKS2_MKP2" H 3138 10050 50  0001 C CNN
F 3 "~" H 3100 10200 50  0001 C CNN
	1    3100 10200
	1    0    0    -1  
$EndComp
Wire Wire Line
	3100 9950 3100 10000
Wire Wire Line
	3100 10000 3600 10000
Connection ~ 3100 10000
Wire Wire Line
	3100 10000 3100 10050
Wire Wire Line
	3100 9650 2750 9650
Wire Wire Line
	3100 10350 2750 10350
Wire Wire Line
	2750 10250 2750 10350
Connection ~ 2750 10350
Wire Wire Line
	3600 10000 3600 10100
$Comp
L power:+12VA #PWR010
U 1 1 5CE35A20
P 4150 9600
F 0 "#PWR010" H 4150 9450 50  0001 C CNN
F 1 "+12VA" H 4165 9773 50  0000 C CNN
F 2 "" H 4150 9600 50  0001 C CNN
F 3 "" H 4150 9600 50  0001 C CNN
	1    4150 9600
	1    0    0    -1  
$EndComp
Wire Wire Line
	4150 9650 4150 9600
$Comp
L power:-12VA #PWR011
U 1 1 5CE35A27
P 4150 10350
F 0 "#PWR011" H 4150 10200 50  0001 C CNN
F 1 "-12VA" H 4165 10523 50  0000 C CNN
F 2 "" H 4150 10350 50  0001 C CNN
F 3 "" H 4150 10350 50  0001 C CNN
	1    4150 10350
	-1   0    0    1   
$EndComp
$Comp
L power:GNDA #PWR012
U 1 1 5CE35A2D
P 5000 10100
F 0 "#PWR012" H 5000 9850 50  0001 C CNN
F 1 "GNDA" H 5005 9927 50  0000 C CNN
F 2 "" H 5000 10100 50  0001 C CNN
F 3 "" H 5000 10100 50  0001 C CNN
	1    5000 10100
	1    0    0    -1  
$EndComp
$Comp
L Device:C C13
U 1 1 5CE35A33
P 4500 9800
F 0 "C13" H 4615 9846 50  0000 L CNN
F 1 "100n" H 4615 9755 50  0000 L CNN
F 2 "Capacitor_THT:C_Rect_L7.2mm_W2.5mm_P5.00mm_FKS2_FKP2_MKS2_MKP2" H 4538 9650 50  0001 C CNN
F 3 "~" H 4500 9800 50  0001 C CNN
	1    4500 9800
	1    0    0    -1  
$EndComp
$Comp
L Device:C C14
U 1 1 5CE35A3A
P 4500 10200
F 0 "C14" H 4615 10246 50  0000 L CNN
F 1 "100n" H 4615 10155 50  0000 L CNN
F 2 "Capacitor_THT:C_Rect_L7.2mm_W2.5mm_P5.00mm_FKS2_FKP2_MKS2_MKP2" H 4538 10050 50  0001 C CNN
F 3 "~" H 4500 10200 50  0001 C CNN
	1    4500 10200
	1    0    0    -1  
$EndComp
Wire Wire Line
	4500 9950 4500 10000
Wire Wire Line
	4500 10000 5000 10000
Connection ~ 4500 10000
Wire Wire Line
	4500 10000 4500 10050
Wire Wire Line
	4500 9650 4150 9650
Wire Wire Line
	4500 10350 4150 10350
Wire Wire Line
	4150 10250 4150 10350
Connection ~ 4150 10350
Wire Wire Line
	5000 10000 5000 10100
$Comp
L Amplifier_Operational:NE5532 U4
U 3 1 5CE426FF
P 2850 9950
F 0 "U4" H 2808 9996 50  0000 L CNN
F 1 "NE5532" H 2450 9900 50  0000 L CNN
F 2 "Package_DIP:DIP-8_W7.62mm_LongPads" H 2850 9950 50  0001 C CNN
F 3 "http://www.ti.com/lit/ds/symlink/ne5532.pdf" H 2850 9950 50  0001 C CNN
	3    2850 9950
	1    0    0    -1  
$EndComp
Connection ~ 2750 9650
$Comp
L Amplifier_Operational:NE5532 U5
U 3 1 5CE42955
P 4250 9950
F 0 "U5" H 4208 9996 50  0000 L CNN
F 1 "NE5532" H 3850 9900 50  0000 L CNN
F 2 "Package_DIP:DIP-8_W7.62mm_LongPads" H 4250 9950 50  0001 C CNN
F 3 "http://www.ti.com/lit/ds/symlink/ne5532.pdf" H 4250 9950 50  0001 C CNN
	3    4250 9950
	1    0    0    -1  
$EndComp
Connection ~ 4150 9650
$Comp
L Connector_Generic:Conn_01x04 J6
U 1 1 5CE5DEE7
P 12750 1850
F 0 "J6" H 12650 1400 50  0000 L CNN
F 1 "POWER" H 12650 1500 50  0000 L CNN
F 2 "custom:0.156_4pin" H 12750 1850 50  0001 C CNN
F 3 "~" H 12750 1850 50  0001 C CNN
	1    12750 1850
	1    0    0    -1  
$EndComp
Wire Wire Line
	12550 1750 12450 1750
Wire Wire Line
	12450 2050 12550 2050
Wire Wire Line
	12550 1850 11950 1850
Wire Wire Line
	11950 1850 11950 1950
Wire Wire Line
	12550 1950 11950 1950
Connection ~ 11950 1950
Wire Wire Line
	11950 1950 11950 2250
$Comp
L power:GNDA #PWR017
U 1 1 5CE92774
P 11950 2250
F 0 "#PWR017" H 11950 2000 50  0001 C CNN
F 1 "GNDA" H 11955 2077 50  0000 C CNN
F 2 "" H 11950 2250 50  0001 C CNN
F 3 "" H 11950 2250 50  0001 C CNN
	1    11950 2250
	1    0    0    -1  
$EndComp
Wire Wire Line
	12150 2050 11700 2050
Wire Wire Line
	12150 1750 11700 1750
$Comp
L Device:R RFUSE1
U 1 1 5CEAD2FE
P 11550 1750
F 0 "RFUSE1" V 11343 1750 50  0000 C CNN
F 1 "0R" V 11434 1750 50  0000 C CNN
F 2 "Resistor_THT:R_Axial_DIN0207_L6.3mm_D2.5mm_P10.16mm_Horizontal" V 11480 1750 50  0001 C CNN
F 3 "~" H 11550 1750 50  0001 C CNN
	1    11550 1750
	0    1    1    0   
$EndComp
$Comp
L Device:R RFUSE2
U 1 1 5CEAD420
P 11550 2050
F 0 "RFUSE2" V 11750 2050 50  0000 C CNN
F 1 "0R" V 11650 2050 50  0000 C CNN
F 2 "Resistor_THT:R_Axial_DIN0207_L6.3mm_D2.5mm_P10.16mm_Horizontal" V 11480 2050 50  0001 C CNN
F 3 "~" H 11550 2050 50  0001 C CNN
	1    11550 2050
	0    1    1    0   
$EndComp
$Comp
L Device:CP C17
U 1 1 5CEAD99A
P 11000 1750
F 0 "C17" H 11118 1796 50  0000 L CNN
F 1 "10u" H 11118 1705 50  0000 L CNN
F 2 "Capacitor_THT:CP_Radial_D6.3mm_P2.50mm" H 11038 1600 50  0001 C CNN
F 3 "~" H 11000 1750 50  0001 C CNN
	1    11000 1750
	1    0    0    -1  
$EndComp
$Comp
L Device:CP C18
U 1 1 5CEADA9E
P 11000 2150
F 0 "C18" H 11118 2196 50  0000 L CNN
F 1 "10u" H 11118 2105 50  0000 L CNN
F 2 "Capacitor_THT:CP_Radial_D6.3mm_P2.50mm" H 11038 2000 50  0001 C CNN
F 3 "~" H 11000 2150 50  0001 C CNN
	1    11000 2150
	1    0    0    -1  
$EndComp
Wire Wire Line
	11950 1950 11000 1950
Wire Wire Line
	11000 1950 11000 1900
Wire Wire Line
	11000 1950 11000 2000
Connection ~ 11000 1950
Wire Wire Line
	11400 1750 11350 1750
Wire Wire Line
	11350 1750 11350 1600
Wire Wire Line
	11350 1600 11150 1600
Wire Wire Line
	11000 2300 11150 2300
Wire Wire Line
	11350 2300 11350 2050
Wire Wire Line
	11350 2050 11400 2050
Wire Wire Line
	11000 1600 10750 1600
Connection ~ 11000 1600
Wire Wire Line
	11000 2300 10750 2300
Connection ~ 11000 2300
$Comp
L power:+12VA #PWR015
U 1 1 5CF02D77
P 10750 1600
F 0 "#PWR015" H 10750 1450 50  0001 C CNN
F 1 "+12VA" H 10765 1773 50  0000 C CNN
F 2 "" H 10750 1600 50  0001 C CNN
F 3 "" H 10750 1600 50  0001 C CNN
	1    10750 1600
	1    0    0    -1  
$EndComp
$Comp
L power:-12VA #PWR016
U 1 1 5CF02E55
P 10750 2300
F 0 "#PWR016" H 10750 2150 50  0001 C CNN
F 1 "-12VA" H 10765 2473 50  0000 C CNN
F 2 "" H 10750 2300 50  0001 C CNN
F 3 "" H 10750 2300 50  0001 C CNN
	1    10750 2300
	-1   0    0    1   
$EndComp
Wire Wire Line
	5050 8100 5050 7650
Wire Wire Line
	5050 7650 5400 7650
Wire Wire Line
	4000 8100 5050 8100
Wire Wire Line
	5000 8600 5000 8700
Wire Wire Line
	5000 8700 5400 8700
Wire Wire Line
	4000 8600 5000 8600
Wire Wire Line
	5550 3700 5550 3800
$Comp
L power:PWR_FLAG #FLG0101
U 1 1 5CF4111E
P 11150 1600
F 0 "#FLG0101" H 11150 1675 50  0001 C CNN
F 1 "PWR_FLAG" H 11150 1774 50  0000 C CNN
F 2 "" H 11150 1600 50  0001 C CNN
F 3 "~" H 11150 1600 50  0001 C CNN
	1    11150 1600
	1    0    0    -1  
$EndComp
Connection ~ 11150 1600
Wire Wire Line
	11150 1600 11000 1600
$Comp
L power:PWR_FLAG #FLG0102
U 1 1 5CF411FE
P 11150 2300
F 0 "#FLG0102" H 11150 2375 50  0001 C CNN
F 1 "PWR_FLAG" H 11150 2473 50  0000 C CNN
F 2 "" H 11150 2300 50  0001 C CNN
F 3 "~" H 11150 2300 50  0001 C CNN
	1    11150 2300
	-1   0    0    1   
$EndComp
Connection ~ 11150 2300
Wire Wire Line
	11150 2300 11350 2300
$Comp
L power:PWR_FLAG #FLG0103
U 1 1 5CF41932
P 11950 1600
F 0 "#FLG0103" H 11950 1675 50  0001 C CNN
F 1 "PWR_FLAG" H 11950 1774 50  0000 C CNN
F 2 "" H 11950 1600 50  0001 C CNN
F 3 "~" H 11950 1600 50  0001 C CNN
	1    11950 1600
	1    0    0    -1  
$EndComp
Wire Wire Line
	11950 1850 11950 1600
Connection ~ 11950 1850
Text Label 1700 2800 3    50   ~ 0
RIGHT_IN
Text Label 1700 4550 3    50   ~ 0
LEFT_IN
Text Notes 11450 2850 0    118  ~ 0
POWER
Text Notes 3050 7050 0    118  ~ 0
HEADPHONES DRIVER
Text Notes 3950 6150 0    118  ~ 0
INPUTS\n
Text Notes 12250 3950 0    118  ~ 0
LEDs
Text Label 12600 5250 2    50   ~ 0
LEFT_IN
$Comp
L Device:R R29
U 1 1 5CDBD4D9
P 12850 5250
F 0 "R29" V 12643 5250 50  0000 C CNN
F 1 "100k" V 12734 5250 50  0000 C CNN
F 2 "Resistor_THT:R_Axial_DIN0207_L6.3mm_D2.5mm_P10.16mm_Horizontal" V 12780 5250 50  0001 C CNN
F 3 "~" H 12850 5250 50  0001 C CNN
	1    12850 5250
	0    1    1    0   
$EndComp
$Comp
L Device:Q_NPN_EBC Q2
U 1 1 5CDBD4DF
P 13300 5250
F 0 "Q2" H 13491 5296 50  0000 L CNN
F 1 "2N3904" H 13491 5205 50  0000 L CNN
F 2 "Package_TO_SOT_THT:TO-92L_Inline_Wide" H 13500 5350 50  0001 C CNN
F 3 "~" H 13300 5250 50  0001 C CNN
	1    13300 5250
	1    0    0    -1  
$EndComp
$Comp
L power:GNDA #PWR022
U 1 1 5CDBD4E5
P 13400 5550
F 0 "#PWR022" H 13400 5300 50  0001 C CNN
F 1 "GNDA" H 13405 5377 50  0000 C CNN
F 2 "" H 13400 5550 50  0001 C CNN
F 3 "" H 13400 5550 50  0001 C CNN
	1    13400 5550
	1    0    0    -1  
$EndComp
Wire Wire Line
	13400 5450 13400 5550
Wire Wire Line
	13100 5250 13000 5250
Wire Wire Line
	12700 5250 12600 5250
$Comp
L Device:LED D8
U 1 1 5CDBD4EE
P 13400 4800
F 0 "D8" V 13438 4683 50  0000 R CNN
F 1 "LED" V 13347 4683 50  0000 R CNN
F 2 "LED_THT:LED_D3.0mm" H 13400 4800 50  0001 C CNN
F 3 "~" H 13400 4800 50  0001 C CNN
	1    13400 4800
	0    -1   -1   0   
$EndComp
Wire Wire Line
	13400 4950 13400 5050
$Comp
L power:+12VA #PWR021
U 1 1 5CDBD4F5
P 13400 4200
F 0 "#PWR021" H 13400 4050 50  0001 C CNN
F 1 "+12VA" H 13415 4373 50  0000 C CNN
F 2 "" H 13400 4200 50  0001 C CNN
F 3 "" H 13400 4200 50  0001 C CNN
	1    13400 4200
	1    0    0    -1  
$EndComp
$Comp
L Device:R R30
U 1 1 5CE72040
P 13400 4400
F 0 "R30" V 13193 4400 50  0000 C CNN
F 1 "1k" V 13284 4400 50  0000 C CNN
F 2 "Resistor_THT:R_Axial_DIN0207_L6.3mm_D2.5mm_P10.16mm_Horizontal" V 13330 4400 50  0001 C CNN
F 3 "~" H 13400 4400 50  0001 C CNN
	1    13400 4400
	-1   0    0    1   
$EndComp
Wire Wire Line
	13400 4550 13400 4650
Wire Wire Line
	13400 4250 13400 4200
Text Label 10650 5250 2    50   ~ 0
RIGHT_IN
$Comp
L Device:R R27
U 1 1 5CEB3BC8
P 10900 5250
F 0 "R27" V 10693 5250 50  0000 C CNN
F 1 "100k" V 10784 5250 50  0000 C CNN
F 2 "Resistor_THT:R_Axial_DIN0207_L6.3mm_D2.5mm_P10.16mm_Horizontal" V 10830 5250 50  0001 C CNN
F 3 "~" H 10900 5250 50  0001 C CNN
	1    10900 5250
	0    1    1    0   
$EndComp
$Comp
L Device:Q_NPN_EBC Q1
U 1 1 5CEB3BCE
P 11350 5250
F 0 "Q1" H 11541 5296 50  0000 L CNN
F 1 "2N3904" H 11541 5205 50  0000 L CNN
F 2 "Package_TO_SOT_THT:TO-92L_Inline_Wide" H 11550 5350 50  0001 C CNN
F 3 "~" H 11350 5250 50  0001 C CNN
	1    11350 5250
	1    0    0    -1  
$EndComp
$Comp
L power:GNDA #PWR020
U 1 1 5CEB3BD4
P 11450 5550
F 0 "#PWR020" H 11450 5300 50  0001 C CNN
F 1 "GNDA" H 11455 5377 50  0000 C CNN
F 2 "" H 11450 5550 50  0001 C CNN
F 3 "" H 11450 5550 50  0001 C CNN
	1    11450 5550
	1    0    0    -1  
$EndComp
Wire Wire Line
	11450 5450 11450 5550
Wire Wire Line
	11150 5250 11050 5250
Wire Wire Line
	10750 5250 10650 5250
$Comp
L Device:LED D7
U 1 1 5CEB3BDD
P 11450 4800
F 0 "D7" V 11488 4683 50  0000 R CNN
F 1 "LED" V 11397 4683 50  0000 R CNN
F 2 "LED_THT:LED_D3.0mm" H 11450 4800 50  0001 C CNN
F 3 "~" H 11450 4800 50  0001 C CNN
	1    11450 4800
	0    -1   -1   0   
$EndComp
Wire Wire Line
	11450 4950 11450 5050
$Comp
L power:+12VA #PWR019
U 1 1 5CEB3BE4
P 11450 4200
F 0 "#PWR019" H 11450 4050 50  0001 C CNN
F 1 "+12VA" H 11465 4373 50  0000 C CNN
F 2 "" H 11450 4200 50  0001 C CNN
F 3 "" H 11450 4200 50  0001 C CNN
	1    11450 4200
	1    0    0    -1  
$EndComp
$Comp
L Device:R R28
U 1 1 5CEB3BEA
P 11450 4400
F 0 "R28" V 11243 4400 50  0000 C CNN
F 1 "1k" V 11334 4400 50  0000 C CNN
F 2 "Resistor_THT:R_Axial_DIN0207_L6.3mm_D2.5mm_P10.16mm_Horizontal" V 11380 4400 50  0001 C CNN
F 3 "~" H 11450 4400 50  0001 C CNN
	1    11450 4400
	-1   0    0    1   
$EndComp
Wire Wire Line
	11450 4550 11450 4650
Wire Wire Line
	11450 4250 11450 4200
$Comp
L Device:D_Schottky D5
U 1 1 5DA58218
P 12300 1750
F 0 "D5" H 12300 1966 50  0000 C CNN
F 1 "1N5817" H 12300 1875 50  0000 C CNN
F 2 "Diode_THT:D_5W_P12.70mm_Horizontal" H 12300 1750 50  0001 C CNN
F 3 "~" H 12300 1750 50  0001 C CNN
	1    12300 1750
	1    0    0    -1  
$EndComp
$Comp
L Device:D_Schottky D6
U 1 1 5DA58619
P 12300 2050
F 0 "D6" H 12300 2300 50  0000 C CNN
F 1 "1N5817" H 12300 2200 50  0000 C CNN
F 2 "Diode_THT:D_5W_P12.70mm_Horizontal" H 12300 2050 50  0001 C CNN
F 3 "~" H 12300 2050 50  0001 C CNN
	1    12300 2050
	-1   0    0    1   
$EndComp
Wire Wire Line
	3200 7900 3800 7900
Wire Wire Line
	3200 8400 3800 8400
Connection ~ 3000 4650
Wire Wire Line
	3000 4650 3150 4650
Wire Wire Line
	2950 4650 3000 4650
Connection ~ 2250 4550
Wire Wire Line
	2250 4550 2100 4550
Wire Wire Line
	2350 4550 2250 4550
$Comp
L Device:C C6
U 1 1 5DBBA0E8
P 3300 2900
F 0 "C6" V 3048 2900 50  0000 C CNN
F 1 "1uF" V 3139 2900 50  0000 C CNN
F 2 "Capacitor_THT:C_Rect_L7.2mm_W5.5mm_P5.00mm_FKS2_FKP2_MKS2_MKP2" H 3338 2750 50  0001 C CNN
F 3 "~" H 3300 2900 50  0001 C CNN
	1    3300 2900
	0    1    1    0   
$EndComp
$Comp
L Device:C C7
U 1 1 5DBBA709
P 3300 4650
F 0 "C7" V 3048 4650 50  0000 C CNN
F 1 "1uF" V 3139 4650 50  0000 C CNN
F 2 "Capacitor_THT:C_Rect_L7.2mm_W5.5mm_P5.00mm_FKS2_FKP2_MKS2_MKP2" H 3338 4500 50  0001 C CNN
F 3 "~" H 3300 4650 50  0001 C CNN
	1    3300 4650
	0    1    1    0   
$EndComp
$Comp
L Connector:AudioJack3_SwitchTR J4
U 1 1 5F016E60
P 7350 3250
F 0 "J4" H 7070 3083 50  0000 R CNN
F 1 "OUT_RIGHT" H 7070 3174 50  0000 R CNN
F 2 "" H 7350 3250 50  0001 C CNN
F 3 "~" H 7350 3250 50  0001 C CNN
	1    7350 3250
	-1   0    0    1   
$EndComp
$Comp
L Connector:AudioJack3_SwitchTR J5
U 1 1 5F01529A
P 7350 5000
F 0 "J5" H 7070 4833 50  0000 R CNN
F 1 "OUT_LEFT" H 7070 4924 50  0000 R CNN
F 2 "" H 7350 5000 50  0001 C CNN
F 3 "~" H 7350 5000 50  0001 C CNN
	1    7350 5000
	-1   0    0    1   
$EndComp
$Comp
L Connector:AudioJack3_SwitchTR J7
U 1 1 5F018F17
P 9000 8050
F 0 "J7" H 8720 7883 50  0000 R CNN
F 1 "PHONES" H 8720 7974 50  0000 R CNN
F 2 "" H 9000 8050 50  0001 C CNN
F 3 "~" H 9000 8050 50  0001 C CNN
	1    9000 8050
	-1   0    0    -1  
$EndComp
$EndSCHEMATC
