(module Amphenol_ACJS-MHOM (layer F.Cu) (tedit 5DB8340B)
  (fp_text reference REF** (at -9.525 6.477) (layer F.SilkS)
    (effects (font (size 1 1) (thickness 0.15)))
  )
  (fp_text value Amphenol_ACJS-MHOM (at -2.921 -11.43) (layer F.Fab)
    (effects (font (size 1 1) (thickness 0.15)))
  )
  (fp_line (start 13.589 -1.016) (end 22.352 -1.016) (layer F.SilkS) (width 0.15))
  (fp_line (start -11.43 -10.414) (end -11.43 5.461) (layer F.SilkS) (width 0.15))
  (fp_line (start -11.43 -10.414) (end 13.589 -10.414) (layer F.SilkS) (width 0.15))
  (fp_line (start -11.43 5.461) (end 13.589 5.461) (layer F.SilkS) (width 0.15))
  (fp_line (start 13.589 -10.414) (end 13.589 5.461) (layer F.SilkS) (width 0.15))
  (fp_line (start 13.716 4.064) (end 22.352 4.064) (layer F.SilkS) (width 0.15))
  (fp_line (start 22.352 4.064) (end 22.352 -5.969) (layer F.SilkS) (width 0.15))
  (fp_line (start 22.352 -5.969) (end 13.716 -5.969) (layer F.SilkS) (width 0.15))
  (pad S thru_hole circle (at 8.89 -8.255) (size 3 3) (drill 1.5) (layers *.Cu *.Mask))
  (pad R thru_hole circle (at 2.54 -8.255) (size 3 3) (drill 1.5) (layers *.Cu *.Mask))
  (pad T thru_hole circle (at -3.81 -8.255) (size 3 3) (drill 1.5) (layers *.Cu *.Mask))
  (pad TN thru_hole circle (at -3.81 3.175) (size 3 3) (drill 1.5) (layers *.Cu *.Mask))
  (pad RN thru_hole circle (at 2.54 3.175) (size 3 3) (drill 1.5) (layers *.Cu *.Mask))
  (pad S thru_hole circle (at 8.89 3.175) (size 3 3) (drill 1.5) (layers *.Cu *.Mask))
)
