G04 #@! TF.GenerationSoftware,KiCad,Pcbnew,5.1.5-52549c5~86~ubuntu18.04.1*
G04 #@! TF.CreationDate,2020-04-26T12:01:26+02:00*
G04 #@! TF.ProjectId,outsie,6f757473-6965-42e6-9b69-6361645f7063,1*
G04 #@! TF.SameCoordinates,Original*
G04 #@! TF.FileFunction,Profile,NP*
%FSLAX46Y46*%
G04 Gerber Fmt 4.6, Leading zero omitted, Abs format (unit mm)*
G04 Created by KiCad (PCBNEW 5.1.5-52549c5~86~ubuntu18.04.1) date 2020-04-26 12:01:26*
%MOMM*%
%LPD*%
G04 APERTURE LIST*
%ADD10C,0.150000*%
G04 APERTURE END LIST*
D10*
X65405000Y-23495000D02*
G75*
G02X67310000Y-21590000I1905000J0D01*
G01*
X114935000Y-156210000D02*
X102489000Y-156210000D01*
X116205000Y-154940000D02*
G75*
G02X114935000Y-156210000I-1270000J0D01*
G01*
X116205000Y-136144000D02*
X116205000Y-154940000D01*
X101219000Y-157480000D02*
X101219000Y-173101000D01*
X67310000Y-175006000D02*
G75*
G02X65405000Y-173101000I0J1905000D01*
G01*
X101219000Y-173101000D02*
G75*
G02X99314000Y-175006000I-1905000J0D01*
G01*
X101219000Y-157480000D02*
G75*
G02X102489000Y-156210000I1270000J0D01*
G01*
X114935000Y-134874000D02*
G75*
G02X116205000Y-136144000I0J-1270000D01*
G01*
X103251000Y-134874000D02*
G75*
G02X101981000Y-133604000I0J1270000D01*
G01*
X101981000Y-98679000D02*
G75*
G02X103251000Y-97409000I1270000J0D01*
G01*
X116205000Y-96139000D02*
G75*
G02X114935000Y-97409000I-1270000J0D01*
G01*
X67310000Y-21590000D02*
X114300000Y-21590000D01*
X116205000Y-96139000D02*
X116205000Y-23495000D01*
X114300000Y-21590000D02*
G75*
G02X116205000Y-23495000I0J-1905000D01*
G01*
X114935000Y-134874000D02*
X103251000Y-134874000D01*
X101981000Y-98679000D02*
X101981000Y-133604000D01*
X114935000Y-97409000D02*
X103251000Y-97409000D01*
X67310000Y-175006000D02*
X99314000Y-175006000D01*
X65405000Y-23495000D02*
X65405000Y-173101000D01*
M02*
